%YAML 1.1
%TAG !u! tag:unity3d.com,2011:
--- !u!114 &2273414803487409954
MonoBehaviour:
  m_ObjectHideFlags: 0
  m_CorrespondingSourceObject: {fileID: 0}
  m_PrefabInstance: {fileID: 0}
  m_PrefabAsset: {fileID: 0}
  m_GameObject: {fileID: 1874823082650771664}
  m_Enabled: 1
  m_EditorHideFlags: 0
  m_Script: {fileID: 11500000, guid: c52b6fbed51e14148b3f6efa5a9b5884, type: 3}
  m_Name: 
  m_EditorClassIdentifier: 
  Speed: 0
  Distance: 0
--- !u!1001 &1120849337499055752
PrefabInstance:
  m_ObjectHideFlags: 0
  serializedVersion: 2
  m_Modification:
    m_TransformParent: {fileID: 0}
    m_Modifications:
    - target: {fileID: 1552258774713423448, guid: 5ed3e4118aef51444bdb0394c89c1d22,
        type: 3}
      propertyPath: m_Name
      value: LineSphere
      objectReference: {fileID: 0}
    - target: {fileID: 2067379776597100504, guid: 5ed3e4118aef51444bdb0394c89c1d22,
        type: 3}
      propertyPath: m_Materials.Array.size
      value: 1
      objectReference: {fileID: 0}
    - target: {fileID: 2067379776597100504, guid: 5ed3e4118aef51444bdb0394c89c1d22,
        type: 3}
      propertyPath: m_CastShadows
      value: 0
      objectReference: {fileID: 0}
    - target: {fileID: 2067379776597100504, guid: 5ed3e4118aef51444bdb0394c89c1d22,
        type: 3}
      propertyPath: m_ReceiveShadows
      value: 0
      objectReference: {fileID: 0}
    - target: {fileID: 2067379776597100504, guid: 5ed3e4118aef51444bdb0394c89c1d22,
        type: 3}
      propertyPath: m_Materials.Array.data[1]
      value: 
      objectReference: {fileID: 2100000, guid: 0e878d04d1db7a84baa7add1cfb06a4b, type: 2}
    - target: {fileID: 7293077826040886875, guid: 5ed3e4118aef51444bdb0394c89c1d22,
        type: 3}
      propertyPath: m_LocalPosition.x
      value: 0
      objectReference: {fileID: 0}
    - target: {fileID: 7293077826040886875, guid: 5ed3e4118aef51444bdb0394c89c1d22,
        type: 3}
      propertyPath: m_LocalPosition.y
      value: 2
      objectReference: {fileID: 0}
    - target: {fileID: 7293077826040886875, guid: 5ed3e4118aef51444bdb0394c89c1d22,
        type: 3}
      propertyPath: m_LocalPosition.z
      value: 20
      objectReference: {fileID: 0}
    - target: {fileID: 7293077826040886875, guid: 5ed3e4118aef51444bdb0394c89c1d22,
        type: 3}
      propertyPath: m_LocalRotation.x
      value: 0
      objectReference: {fileID: 0}
    - target: {fileID: 7293077826040886875, guid: 5ed3e4118aef51444bdb0394c89c1d22,
        type: 3}
      propertyPath: m_LocalRotation.y
      value: 0
      objectReference: {fileID: 0}
    - target: {fileID: 7293077826040886875, guid: 5ed3e4118aef51444bdb0394c89c1d22,
        type: 3}
      propertyPath: m_LocalRotation.z
      value: 0
      objectReference: {fileID: 0}
    - target: {fileID: 7293077826040886875, guid: 5ed3e4118aef51444bdb0394c89c1d22,
        type: 3}
      propertyPath: m_LocalRotation.w
      value: 1
      objectReference: {fileID: 0}
    - target: {fileID: 7293077826040886875, guid: 5ed3e4118aef51444bdb0394c89c1d22,
        type: 3}
      propertyPath: m_RootOrder
      value: 0
      objectReference: {fileID: 0}
    - target: {fileID: 7293077826040886875, guid: 5ed3e4118aef51444bdb0394c89c1d22,
        type: 3}
      propertyPath: m_LocalEulerAnglesHint.x
      value: 0
      objectReference: {fileID: 0}
    - target: {fileID: 7293077826040886875, guid: 5ed3e4118aef51444bdb0394c89c1d22,
        type: 3}
      propertyPath: m_LocalEulerAnglesHint.y
      value: 0
      objectReference: {fileID: 0}
    - target: {fileID: 7293077826040886875, guid: 5ed3e4118aef51444bdb0394c89c1d22,
        type: 3}
      propertyPath: m_LocalEulerAnglesHint.z
      value: 0
      objectReference: {fileID: 0}
    m_RemovedComponents: []
  m_SourcePrefab: {fileID: 100100000, guid: 5ed3e4118aef51444bdb0394c89c1d22, type: 3}
--- !u!1 &1874823082650771664 stripped
GameObject:
  m_CorrespondingSourceObject: {fileID: 1552258774713423448, guid: 5ed3e4118aef51444bdb0394c89c1d22,
    type: 3}
  m_PrefabInstance: {fileID: 1120849337499055752}
  m_PrefabAsset: {fileID: 0}
