%YAML 1.1
%TAG !u! tag:unity3d.com,2011:
--- !u!29 &1
OcclusionCullingSettings:
  m_ObjectHideFlags: 0
  serializedVersion: 2
  m_OcclusionBakeSettings:
    smallestOccluder: 5
    smallestHole: 0.25
    backfaceThreshold: 100
  m_SceneGUID: 00000000000000000000000000000000
  m_OcclusionCullingData: {fileID: 0}
--- !u!104 &2
RenderSettings:
  m_ObjectHideFlags: 0
  serializedVersion: 9
  m_Fog: 0
  m_FogColor: {r: 0.5, g: 0.5, b: 0.5, a: 1}
  m_FogMode: 3
  m_FogDensity: 0.01
  m_LinearFogStart: 0
  m_LinearFogEnd: 300
  m_AmbientSkyColor: {r: 0.212, g: 0.227, b: 0.259, a: 1}
  m_AmbientEquatorColor: {r: 0.114, g: 0.125, b: 0.133, a: 1}
  m_AmbientGroundColor: {r: 0.047, g: 0.043, b: 0.035, a: 1}
  m_AmbientIntensity: 1
  m_AmbientMode: 0
  m_SubtractiveShadowColor: {r: 0.42, g: 0.478, b: 0.627, a: 1}
  m_SkyboxMaterial: {fileID: 10304, guid: 0000000000000000f000000000000000, type: 0}
  m_HaloStrength: 0.5
  m_FlareStrength: 1
  m_FlareFadeSpeed: 3
  m_HaloTexture: {fileID: 0}
  m_SpotCookie: {fileID: 10001, guid: 0000000000000000e000000000000000, type: 0}
  m_DefaultReflectionMode: 0
  m_DefaultReflectionResolution: 128
  m_ReflectionBounces: 1
  m_ReflectionIntensity: 1
  m_CustomReflection: {fileID: 0}
  m_Sun: {fileID: 0}
  m_IndirectSpecularColor: {r: 0.37311953, g: 0.38074014, b: 0.3587274, a: 1}
  m_UseRadianceAmbientProbe: 0
--- !u!157 &3
LightmapSettings:
  m_ObjectHideFlags: 0
  serializedVersion: 11
  m_GIWorkflowMode: 0
  m_GISettings:
    serializedVersion: 2
    m_BounceScale: 1
    m_IndirectOutputScale: 1
    m_AlbedoBoost: 1
    m_EnvironmentLightingMode: 0
    m_EnableBakedLightmaps: 1
    m_EnableRealtimeLightmaps: 0
  m_LightmapEditorSettings:
    serializedVersion: 10
    m_Resolution: 2
    m_BakeResolution: 10
    m_AtlasSize: 512
    m_AO: 0
    m_AOMaxDistance: 1
    m_CompAOExponent: 1
    m_CompAOExponentDirect: 0
    m_Padding: 2
    m_LightmapParameters: {fileID: 0}
    m_LightmapsBakeMode: 1
    m_TextureCompression: 1
    m_FinalGather: 0
    m_FinalGatherFiltering: 1
    m_FinalGatherRayCount: 256
    m_ReflectionCompression: 2
    m_MixedBakeMode: 2
    m_BakeBackend: 1
    m_PVRSampling: 1
    m_PVRDirectSampleCount: 32
    m_PVRSampleCount: 256
    m_PVRBounces: 2
    m_PVRFilterTypeDirect: 0
    m_PVRFilterTypeIndirect: 0
    m_PVRFilterTypeAO: 0
    m_PVRFilteringMode: 1
    m_PVRCulling: 1
    m_PVRFilteringGaussRadiusDirect: 1
    m_PVRFilteringGaussRadiusIndirect: 5
    m_PVRFilteringGaussRadiusAO: 2
    m_PVRFilteringAtrousPositionSigmaDirect: 0.5
    m_PVRFilteringAtrousPositionSigmaIndirect: 2
    m_PVRFilteringAtrousPositionSigmaAO: 1
    m_ShowResolutionOverlay: 1
  m_LightingDataAsset: {fileID: 0}
  m_UseShadowmask: 1
--- !u!196 &4
NavMeshSettings:
  serializedVersion: 2
  m_ObjectHideFlags: 0
  m_BuildSettings:
    serializedVersion: 2
    agentTypeID: 0
    agentRadius: 0.5
    agentHeight: 2
    agentSlope: 45
    agentClimb: 0.4
    ledgeDropHeight: 0
    maxJumpAcrossDistance: 0
    minRegionArea: 2
    manualCellSize: 0
    cellSize: 0.16666667
    manualTileSize: 0
    tileSize: 256
    accuratePlacement: 0
    debug:
      m_Flags: 0
  m_NavMeshData: {fileID: 0}
--- !u!1001 &655979094
PrefabInstance:
  m_ObjectHideFlags: 0
  serializedVersion: 2
  m_Modification:
    m_TransformParent: {fileID: 1370128254}
    m_Modifications:
    - target: {fileID: 112276, guid: d9809c5e8418bb047bf2c8ba1d1a2cec, type: 3}
      propertyPath: m_Name
      value: TrackedRemote
      objectReference: {fileID: 0}
    - target: {fileID: 488160, guid: d9809c5e8418bb047bf2c8ba1d1a2cec, type: 3}
      propertyPath: m_LocalPosition.x
      value: 0
      objectReference: {fileID: 0}
    - target: {fileID: 488160, guid: d9809c5e8418bb047bf2c8ba1d1a2cec, type: 3}
      propertyPath: m_LocalPosition.y
      value: 0
      objectReference: {fileID: 0}
    - target: {fileID: 488160, guid: d9809c5e8418bb047bf2c8ba1d1a2cec, type: 3}
      propertyPath: m_LocalPosition.z
      value: 0
      objectReference: {fileID: 0}
    - target: {fileID: 488160, guid: d9809c5e8418bb047bf2c8ba1d1a2cec, type: 3}
      propertyPath: m_LocalRotation.x
      value: -0
      objectReference: {fileID: 0}
    - target: {fileID: 488160, guid: d9809c5e8418bb047bf2c8ba1d1a2cec, type: 3}
      propertyPath: m_LocalRotation.y
      value: -0
      objectReference: {fileID: 0}
    - target: {fileID: 488160, guid: d9809c5e8418bb047bf2c8ba1d1a2cec, type: 3}
      propertyPath: m_LocalRotation.z
      value: -0
      objectReference: {fileID: 0}
    - target: {fileID: 488160, guid: d9809c5e8418bb047bf2c8ba1d1a2cec, type: 3}
      propertyPath: m_LocalRotation.w
      value: 1
      objectReference: {fileID: 0}
    - target: {fileID: 488160, guid: d9809c5e8418bb047bf2c8ba1d1a2cec, type: 3}
      propertyPath: m_RootOrder
      value: 0
      objectReference: {fileID: 0}
    - target: {fileID: 488160, guid: d9809c5e8418bb047bf2c8ba1d1a2cec, type: 3}
      propertyPath: m_LocalEulerAnglesHint.x
      value: 0
      objectReference: {fileID: 0}
    - target: {fileID: 488160, guid: d9809c5e8418bb047bf2c8ba1d1a2cec, type: 3}
      propertyPath: m_LocalEulerAnglesHint.y
      value: 0
      objectReference: {fileID: 0}
    - target: {fileID: 488160, guid: d9809c5e8418bb047bf2c8ba1d1a2cec, type: 3}
      propertyPath: m_LocalEulerAnglesHint.z
      value: 0
      objectReference: {fileID: 0}
    m_RemovedComponents: []
  m_SourcePrefab: {fileID: 100100000, guid: d9809c5e8418bb047bf2c8ba1d1a2cec, type: 3}
--- !u!1 &655979095 stripped
GameObject:
  m_CorrespondingSourceObject: {fileID: 112276, guid: d9809c5e8418bb047bf2c8ba1d1a2cec,
    type: 3}
  m_PrefabInstance: {fileID: 655979094}
  m_PrefabAsset: {fileID: 0}
--- !u!4 &655979096 stripped
Transform:
  m_CorrespondingSourceObject: {fileID: 488160, guid: d9809c5e8418bb047bf2c8ba1d1a2cec,
    type: 3}
  m_PrefabInstance: {fileID: 655979094}
  m_PrefabAsset: {fileID: 0}
--- !u!1 &774148203 stripped
GameObject:
  m_CorrespondingSourceObject: {fileID: 383764617, guid: 2e59ae32a26f6c345afcbaf98c89ee61,
    type: 3}
  m_PrefabInstance: {fileID: 6595565027371713308}
  m_PrefabAsset: {fileID: 0}
--- !u!114 &774148204
MonoBehaviour:
  m_ObjectHideFlags: 0
  m_CorrespondingSourceObject: {fileID: 0}
  m_PrefabInstance: {fileID: 0}
  m_PrefabAsset: {fileID: 0}
  m_GameObject: {fileID: 774148203}
  m_Enabled: 1
  m_EditorHideFlags: 0
  m_Script: {fileID: 11500000, guid: a9fd3b0d818eff342bc5b0344fed9efc, type: 3}
  m_Name: 
  m_EditorClassIdentifier: 
--- !u!1001 &1209531126
PrefabInstance:
  m_ObjectHideFlags: 0
  serializedVersion: 2
  m_Modification:
    m_TransformParent: {fileID: 655979096}
    m_Modifications:
    - target: {fileID: 1153197407057945299, guid: 6ab69249ade2bd148bb42a71d0187791,
        type: 3}
      propertyPath: m_Name
      value: PointerLine
      objectReference: {fileID: 0}
    - target: {fileID: 1153197407057945298, guid: 6ab69249ade2bd148bb42a71d0187791,
        type: 3}
      propertyPath: m_LocalPosition.x
      value: 0
      objectReference: {fileID: 0}
    - target: {fileID: 1153197407057945298, guid: 6ab69249ade2bd148bb42a71d0187791,
        type: 3}
      propertyPath: m_LocalPosition.y
      value: 0
      objectReference: {fileID: 0}
    - target: {fileID: 1153197407057945298, guid: 6ab69249ade2bd148bb42a71d0187791,
        type: 3}
      propertyPath: m_LocalPosition.z
      value: 0
      objectReference: {fileID: 0}
    - target: {fileID: 1153197407057945298, guid: 6ab69249ade2bd148bb42a71d0187791,
        type: 3}
      propertyPath: m_LocalRotation.x
      value: -0
      objectReference: {fileID: 0}
    - target: {fileID: 1153197407057945298, guid: 6ab69249ade2bd148bb42a71d0187791,
        type: 3}
      propertyPath: m_LocalRotation.y
      value: -0
      objectReference: {fileID: 0}
    - target: {fileID: 1153197407057945298, guid: 6ab69249ade2bd148bb42a71d0187791,
        type: 3}
      propertyPath: m_LocalRotation.z
      value: -0
      objectReference: {fileID: 0}
    - target: {fileID: 1153197407057945298, guid: 6ab69249ade2bd148bb42a71d0187791,
        type: 3}
      propertyPath: m_LocalRotation.w
      value: 1
      objectReference: {fileID: 0}
    - target: {fileID: 1153197407057945298, guid: 6ab69249ade2bd148bb42a71d0187791,
        type: 3}
      propertyPath: m_RootOrder
      value: 2
      objectReference: {fileID: 0}
    - target: {fileID: 1153197407057945298, guid: 6ab69249ade2bd148bb42a71d0187791,
        type: 3}
      propertyPath: m_LocalEulerAnglesHint.x
      value: 0
      objectReference: {fileID: 0}
    - target: {fileID: 1153197407057945298, guid: 6ab69249ade2bd148bb42a71d0187791,
        type: 3}
      propertyPath: m_LocalEulerAnglesHint.y
      value: 0
      objectReference: {fileID: 0}
    - target: {fileID: 1153197407057945298, guid: 6ab69249ade2bd148bb42a71d0187791,
        type: 3}
      propertyPath: m_LocalEulerAnglesHint.z
      value: 0
      objectReference: {fileID: 0}
    - target: {fileID: 1153197407057945293, guid: 6ab69249ade2bd148bb42a71d0187791,
        type: 3}
      propertyPath: RayWidth
      value: 0.01
      objectReference: {fileID: 0}
    m_RemovedComponents: []
  m_SourcePrefab: {fileID: 100100000, guid: 6ab69249ade2bd148bb42a71d0187791, type: 3}
--- !u!4 &1209531127 stripped
Transform:
  m_CorrespondingSourceObject: {fileID: 1153197407057945298, guid: 6ab69249ade2bd148bb42a71d0187791,
    type: 3}
  m_PrefabInstance: {fileID: 1209531126}
  m_PrefabAsset: {fileID: 0}
--- !u!1001 &1370128252
PrefabInstance:
  m_ObjectHideFlags: 0
  serializedVersion: 2
  m_Modification:
    m_TransformParent: {fileID: 0}
    m_Modifications:
    - target: {fileID: 100004, guid: 126d619cf4daa52469682f85c1378b4a, type: 3}
      propertyPath: m_Name
      value: OVRCameraRig
      objectReference: {fileID: 0}
    - target: {fileID: 400004, guid: 126d619cf4daa52469682f85c1378b4a, type: 3}
      propertyPath: m_LocalPosition.x
      value: 0
      objectReference: {fileID: 0}
    - target: {fileID: 400004, guid: 126d619cf4daa52469682f85c1378b4a, type: 3}
      propertyPath: m_LocalPosition.y
      value: 0
      objectReference: {fileID: 0}
    - target: {fileID: 400004, guid: 126d619cf4daa52469682f85c1378b4a, type: 3}
      propertyPath: m_LocalPosition.z
      value: 0
      objectReference: {fileID: 0}
    - target: {fileID: 400004, guid: 126d619cf4daa52469682f85c1378b4a, type: 3}
      propertyPath: m_LocalRotation.x
      value: 0
      objectReference: {fileID: 0}
    - target: {fileID: 400004, guid: 126d619cf4daa52469682f85c1378b4a, type: 3}
      propertyPath: m_LocalRotation.y
      value: 0
      objectReference: {fileID: 0}
    - target: {fileID: 400004, guid: 126d619cf4daa52469682f85c1378b4a, type: 3}
      propertyPath: m_LocalRotation.z
      value: 0
      objectReference: {fileID: 0}
    - target: {fileID: 400004, guid: 126d619cf4daa52469682f85c1378b4a, type: 3}
      propertyPath: m_LocalRotation.w
      value: 1
      objectReference: {fileID: 0}
    - target: {fileID: 400004, guid: 126d619cf4daa52469682f85c1378b4a, type: 3}
      propertyPath: m_RootOrder
      value: 0
      objectReference: {fileID: 0}
    - target: {fileID: 400004, guid: 126d619cf4daa52469682f85c1378b4a, type: 3}
      propertyPath: m_LocalEulerAnglesHint.x
      value: 0
      objectReference: {fileID: 0}
    - target: {fileID: 400004, guid: 126d619cf4daa52469682f85c1378b4a, type: 3}
      propertyPath: m_LocalEulerAnglesHint.y
      value: 0
      objectReference: {fileID: 0}
    - target: {fileID: 400004, guid: 126d619cf4daa52469682f85c1378b4a, type: 3}
      propertyPath: m_LocalEulerAnglesHint.z
      value: 0
      objectReference: {fileID: 0}
    - target: {fileID: 2037080, guid: 126d619cf4daa52469682f85c1378b4a, type: 3}
      propertyPath: m_BackGroundColor.r
      value: 0
      objectReference: {fileID: 0}
    - target: {fileID: 2037080, guid: 126d619cf4daa52469682f85c1378b4a, type: 3}
      propertyPath: m_BackGroundColor.g
      value: 0
      objectReference: {fileID: 0}
    - target: {fileID: 2037080, guid: 126d619cf4daa52469682f85c1378b4a, type: 3}
      propertyPath: m_BackGroundColor.b
      value: 0
      objectReference: {fileID: 0}
    - target: {fileID: 2037080, guid: 126d619cf4daa52469682f85c1378b4a, type: 3}
      propertyPath: m_ClearFlags
      value: 2
      objectReference: {fileID: 0}
    - target: {fileID: 2037080, guid: 126d619cf4daa52469682f85c1378b4a, type: 3}
      propertyPath: field of view
      value: 110
      objectReference: {fileID: 0}
    - target: {fileID: 113768, guid: 126d619cf4daa52469682f85c1378b4a, type: 3}
      propertyPath: m_IsActive
      value: 1
      objectReference: {fileID: 0}
    m_RemovedComponents: []
  m_SourcePrefab: {fileID: 100100000, guid: 126d619cf4daa52469682f85c1378b4a, type: 3}
--- !u!4 &1370128253 stripped
Transform:
  m_CorrespondingSourceObject: {fileID: 400002, guid: 126d619cf4daa52469682f85c1378b4a,
    type: 3}
  m_PrefabInstance: {fileID: 1370128252}
  m_PrefabAsset: {fileID: 0}
--- !u!4 &1370128254 stripped
Transform:
  m_CorrespondingSourceObject: {fileID: 487254, guid: 126d619cf4daa52469682f85c1378b4a,
    type: 3}
  m_PrefabInstance: {fileID: 1370128252}
  m_PrefabAsset: {fileID: 0}
--- !u!20 &1370128255 stripped
Camera:
  m_CorrespondingSourceObject: {fileID: 2037080, guid: 126d619cf4daa52469682f85c1378b4a,
    type: 3}
  m_PrefabInstance: {fileID: 1370128252}
  m_PrefabAsset: {fileID: 0}
--- !u!1001 &1668060349
PrefabInstance:
  m_ObjectHideFlags: 0
  serializedVersion: 2
  m_Modification:
    m_TransformParent: {fileID: 0}
    m_Modifications:
    - target: {fileID: 7444919926921924047, guid: f0e50f7b47f1c1641aa66856faf178a1,
        type: 3}
      propertyPath: m_Name
      value: SaveDialog
      objectReference: {fileID: 0}
    - target: {fileID: 7444919926921924047, guid: f0e50f7b47f1c1641aa66856faf178a1,
        type: 3}
      propertyPath: m_IsActive
      value: 1
      objectReference: {fileID: 0}
    - target: {fileID: 7444919926921924046, guid: f0e50f7b47f1c1641aa66856faf178a1,
        type: 3}
      propertyPath: m_LocalPosition.x
      value: 0
      objectReference: {fileID: 0}
    - target: {fileID: 7444919926921924046, guid: f0e50f7b47f1c1641aa66856faf178a1,
        type: 3}
      propertyPath: m_LocalPosition.y
      value: 0
      objectReference: {fileID: 0}
    - target: {fileID: 7444919926921924046, guid: f0e50f7b47f1c1641aa66856faf178a1,
        type: 3}
      propertyPath: m_LocalPosition.z
      value: 8
      objectReference: {fileID: 0}
    - target: {fileID: 7444919926921924046, guid: f0e50f7b47f1c1641aa66856faf178a1,
        type: 3}
      propertyPath: m_LocalRotation.x
      value: 0
      objectReference: {fileID: 0}
    - target: {fileID: 7444919926921924046, guid: f0e50f7b47f1c1641aa66856faf178a1,
        type: 3}
      propertyPath: m_LocalRotation.y
      value: 0
      objectReference: {fileID: 0}
    - target: {fileID: 7444919926921924046, guid: f0e50f7b47f1c1641aa66856faf178a1,
        type: 3}
      propertyPath: m_LocalRotation.z
      value: 0
      objectReference: {fileID: 0}
    - target: {fileID: 7444919926921924046, guid: f0e50f7b47f1c1641aa66856faf178a1,
        type: 3}
      propertyPath: m_LocalRotation.w
      value: 1
      objectReference: {fileID: 0}
    - target: {fileID: 7444919926921924046, guid: f0e50f7b47f1c1641aa66856faf178a1,
        type: 3}
      propertyPath: m_RootOrder
      value: 2
      objectReference: {fileID: 0}
    - target: {fileID: 7444919926921924046, guid: f0e50f7b47f1c1641aa66856faf178a1,
        type: 3}
      propertyPath: m_LocalEulerAnglesHint.x
      value: 0
      objectReference: {fileID: 0}
    - target: {fileID: 7444919926921924046, guid: f0e50f7b47f1c1641aa66856faf178a1,
        type: 3}
      propertyPath: m_LocalEulerAnglesHint.y
      value: 0
      objectReference: {fileID: 0}
    - target: {fileID: 7444919926921924046, guid: f0e50f7b47f1c1641aa66856faf178a1,
        type: 3}
      propertyPath: m_LocalEulerAnglesHint.z
      value: 0
      objectReference: {fileID: 0}
    - target: {fileID: 6750259850772511333, guid: f0e50f7b47f1c1641aa66856faf178a1,
        type: 3}
      propertyPath: m_IsActive
      value: 1
      objectReference: {fileID: 0}
    - target: {fileID: 7444919927477404673, guid: f0e50f7b47f1c1641aa66856faf178a1,
        type: 3}
      propertyPath: m_IsActive
      value: 1
      objectReference: {fileID: 0}
    - target: {fileID: 7444919926806682196, guid: f0e50f7b47f1c1641aa66856faf178a1,
        type: 3}
      propertyPath: m_AnchoredPosition.x
      value: 0
      objectReference: {fileID: 0}
    - target: {fileID: 7444919926806682196, guid: f0e50f7b47f1c1641aa66856faf178a1,
        type: 3}
      propertyPath: m_SizeDelta.x
      value: 0
      objectReference: {fileID: 0}
    - target: {fileID: 6750259850772511334, guid: f0e50f7b47f1c1641aa66856faf178a1,
        type: 3}
      propertyPath: rayTransform
      value: 
      objectReference: {fileID: 1209531127}
    - target: {fileID: 6750259850772511334, guid: f0e50f7b47f1c1641aa66856faf178a1,
        type: 3}
      propertyPath: cursorRadius
      value: 10
      objectReference: {fileID: 0}
    - target: {fileID: 7444919927477404685, guid: f0e50f7b47f1c1641aa66856faf178a1,
        type: 3}
      propertyPath: m_Camera
      value: 
      objectReference: {fileID: 1370128255}
    - target: {fileID: 7444919927477404687, guid: f0e50f7b47f1c1641aa66856faf178a1,
        type: 3}
      propertyPath: pointer
      value: 
      objectReference: {fileID: 655979095}
    - target: {fileID: 7444919928325780970, guid: f0e50f7b47f1c1641aa66856faf178a1,
        type: 3}
      propertyPath: rayTransform
      value: 
      objectReference: {fileID: 655979096}
    - target: {fileID: 7444919927060376520, guid: f0e50f7b47f1c1641aa66856faf178a1,
        type: 3}
      propertyPath: m_OnClick.m_PersistentCalls.m_Calls.Array.data[0].m_Target
      value: 
      objectReference: {fileID: 1668060351}
    - target: {fileID: 7444919927060376520, guid: f0e50f7b47f1c1641aa66856faf178a1,
        type: 3}
      propertyPath: m_OnClick.m_PersistentCalls.m_Calls.Array.data[0].m_MethodName
      value: nosave
      objectReference: {fileID: 0}
    - target: {fileID: 7444919927060376520, guid: f0e50f7b47f1c1641aa66856faf178a1,
        type: 3}
      propertyPath: m_Colors.m_HighlightedColor.r
      value: 1
      objectReference: {fileID: 0}
    - target: {fileID: 7444919927060376520, guid: f0e50f7b47f1c1641aa66856faf178a1,
        type: 3}
      propertyPath: m_Colors.m_HighlightedColor.g
      value: 0.25490198
      objectReference: {fileID: 0}
    - target: {fileID: 7444919927060376520, guid: f0e50f7b47f1c1641aa66856faf178a1,
        type: 3}
      propertyPath: m_Colors.m_HighlightedColor.b
      value: 0.25490198
      objectReference: {fileID: 0}
    - target: {fileID: 7444919928189916496, guid: f0e50f7b47f1c1641aa66856faf178a1,
        type: 3}
      propertyPath: m_OnClick.m_PersistentCalls.m_Calls.Array.size
      value: 1
      objectReference: {fileID: 0}
    - target: {fileID: 7444919928189916496, guid: f0e50f7b47f1c1641aa66856faf178a1,
        type: 3}
      propertyPath: m_OnClick.m_PersistentCalls.m_Calls.Array.data[0].m_MethodName
      value: save
      objectReference: {fileID: 0}
    - target: {fileID: 7444919928189916496, guid: f0e50f7b47f1c1641aa66856faf178a1,
        type: 3}
      propertyPath: m_Colors.m_HighlightedColor.g
      value: 1
      objectReference: {fileID: 0}
    - target: {fileID: 7444919928189916496, guid: f0e50f7b47f1c1641aa66856faf178a1,
        type: 3}
      propertyPath: m_Colors.m_HighlightedColor.b
      value: 0.25490198
      objectReference: {fileID: 0}
    - target: {fileID: 7444919928189916496, guid: f0e50f7b47f1c1641aa66856faf178a1,
        type: 3}
      propertyPath: m_OnClick.m_PersistentCalls.m_Calls.Array.data[0].m_Target
      value: 
      objectReference: {fileID: 1668060351}
    - target: {fileID: 7444919928189916496, guid: f0e50f7b47f1c1641aa66856faf178a1,
        type: 3}
      propertyPath: m_OnClick.m_PersistentCalls.m_Calls.Array.data[0].m_Arguments.m_ObjectArgumentAssemblyTypeName
      value: UnityEngine.Object, UnityEngine
      objectReference: {fileID: 0}
    - target: {fileID: 7444919928189916496, guid: f0e50f7b47f1c1641aa66856faf178a1,
        type: 3}
      propertyPath: m_OnClick.m_PersistentCalls.m_Calls.Array.data[1].m_Mode
      value: 1
      objectReference: {fileID: 0}
    - target: {fileID: 7444919928189916496, guid: f0e50f7b47f1c1641aa66856faf178a1,
        type: 3}
      propertyPath: m_OnClick.m_PersistentCalls.m_Calls.Array.data[1].m_CallState
      value: 1
      objectReference: {fileID: 0}
    - target: {fileID: 7444919928189916496, guid: f0e50f7b47f1c1641aa66856faf178a1,
        type: 3}
      propertyPath: m_OnClick.m_PersistentCalls.m_Calls.Array.data[0].m_CallState
      value: 2
      objectReference: {fileID: 0}
    - target: {fileID: 7444919928189916496, guid: f0e50f7b47f1c1641aa66856faf178a1,
        type: 3}
      propertyPath: m_OnClick.m_PersistentCalls.m_Calls.Array.data[0].m_Mode
      value: 1
      objectReference: {fileID: 0}
    - target: {fileID: 7444919928189916496, guid: f0e50f7b47f1c1641aa66856faf178a1,
        type: 3}
      propertyPath: m_OnClick.m_PersistentCalls.m_Calls.Array.data[0].m_Arguments.m_StringArgument
      value: 
      objectReference: {fileID: 0}
    m_RemovedComponents:
    - {fileID: 7444919926921924041, guid: f0e50f7b47f1c1641aa66856faf178a1, type: 3}
  m_SourcePrefab: {fileID: 100100000, guid: f0e50f7b47f1c1641aa66856faf178a1, type: 3}
--- !u!1 &1668060350 stripped
GameObject:
  m_CorrespondingSourceObject: {fileID: 7444919926921924047, guid: f0e50f7b47f1c1641aa66856faf178a1,
    type: 3}
  m_PrefabInstance: {fileID: 1668060349}
  m_PrefabAsset: {fileID: 0}
--- !u!114 &1668060351
MonoBehaviour:
  m_ObjectHideFlags: 0
  m_CorrespondingSourceObject: {fileID: 0}
  m_PrefabInstance: {fileID: 0}
  m_PrefabAsset: {fileID: 0}
  m_GameObject: {fileID: 1668060350}
  m_Enabled: 1
  m_EditorHideFlags: 0
  m_Script: {fileID: 11500000, guid: 5e41e38b70d87184bbc472f265c1328f, type: 3}
  m_Name: 
  m_EditorClassIdentifier: 
--- !u!1001 &6595565027371713308
PrefabInstance:
  m_ObjectHideFlags: 0
  serializedVersion: 2
  m_Modification:
    m_TransformParent: {fileID: 0}
    m_Modifications:
    - target: {fileID: 278216367, guid: 2e59ae32a26f6c345afcbaf98c89ee61, type: 3}
      propertyPath: m_Name
      value: Cube
      objectReference: {fileID: 0}
    - target: {fileID: 278216371, guid: 2e59ae32a26f6c345afcbaf98c89ee61, type: 3}
      propertyPath: m_LocalPosition.x
      value: 0
      objectReference: {fileID: 0}
    - target: {fileID: 278216371, guid: 2e59ae32a26f6c345afcbaf98c89ee61, type: 3}
      propertyPath: m_LocalPosition.y
      value: 0
      objectReference: {fileID: 0}
    - target: {fileID: 278216371, guid: 2e59ae32a26f6c345afcbaf98c89ee61, type: 3}
      propertyPath: m_LocalPosition.z
      value: 20
      objectReference: {fileID: 0}
    - target: {fileID: 278216371, guid: 2e59ae32a26f6c345afcbaf98c89ee61, type: 3}
      propertyPath: m_LocalRotation.x
      value: 0
      objectReference: {fileID: 0}
    - target: {fileID: 278216371, guid: 2e59ae32a26f6c345afcbaf98c89ee61, type: 3}
      propertyPath: m_LocalRotation.y
      value: 0
      objectReference: {fileID: 0}
    - target: {fileID: 278216371, guid: 2e59ae32a26f6c345afcbaf98c89ee61, type: 3}
      propertyPath: m_LocalRotation.z
      value: 0
      objectReference: {fileID: 0}
    - target: {fileID: 278216371, guid: 2e59ae32a26f6c345afcbaf98c89ee61, type: 3}
      propertyPath: m_LocalRotation.w
      value: 1
      objectReference: {fileID: 0}
    - target: {fileID: 278216371, guid: 2e59ae32a26f6c345afcbaf98c89ee61, type: 3}
      propertyPath: m_RootOrder
      value: 1
      objectReference: {fileID: 0}
    - target: {fileID: 278216371, guid: 2e59ae32a26f6c345afcbaf98c89ee61, type: 3}
      propertyPath: m_LocalEulerAnglesHint.x
      value: 0
      objectReference: {fileID: 0}
    - target: {fileID: 278216371, guid: 2e59ae32a26f6c345afcbaf98c89ee61, type: 3}
      propertyPath: m_LocalEulerAnglesHint.y
      value: 0
      objectReference: {fileID: 0}
    - target: {fileID: 278216371, guid: 2e59ae32a26f6c345afcbaf98c89ee61, type: 3}
      propertyPath: m_LocalEulerAnglesHint.z
      value: 0
      objectReference: {fileID: 0}
    - target: {fileID: 278216371, guid: 2e59ae32a26f6c345afcbaf98c89ee61, type: 3}
      propertyPath: m_LocalScale.x
      value: 1
      objectReference: {fileID: 0}
    - target: {fileID: 278216371, guid: 2e59ae32a26f6c345afcbaf98c89ee61, type: 3}
      propertyPath: m_LocalScale.y
      value: 1
      objectReference: {fileID: 0}
    - target: {fileID: 278216371, guid: 2e59ae32a26f6c345afcbaf98c89ee61, type: 3}
      propertyPath: m_LocalScale.z
      value: 1
      objectReference: {fileID: 0}
    - target: {fileID: 383764617, guid: 2e59ae32a26f6c345afcbaf98c89ee61, type: 3}
      propertyPath: m_Name
      value: InfoText
      objectReference: {fileID: 0}
    - target: {fileID: 383764618, guid: 2e59ae32a26f6c345afcbaf98c89ee61, type: 3}
      propertyPath: m_LocalPosition.y
      value: 2.5
      objectReference: {fileID: 0}
    - target: {fileID: 383764618, guid: 2e59ae32a26f6c345afcbaf98c89ee61, type: 3}
      propertyPath: m_LocalPosition.z
      value: 0
      objectReference: {fileID: 0}
    - target: {fileID: 383764619, guid: 2e59ae32a26f6c345afcbaf98c89ee61, type: 3}
      propertyPath: m_CharacterSize
      value: 0.5
      objectReference: {fileID: 0}
    m_RemovedComponents:
    - {fileID: 8615500160607774970, guid: 2e59ae32a26f6c345afcbaf98c89ee61, type: 3}
  m_SourcePrefab: {fileID: 100100000, guid: 2e59ae32a26f6c345afcbaf98c89ee61, type: 3}
--- !u!1 &6595565027371713309 stripped
GameObject:
  m_CorrespondingSourceObject: {fileID: 278216367, guid: 2e59ae32a26f6c345afcbaf98c89ee61,
    type: 3}
  m_PrefabInstance: {fileID: 6595565027371713308}
  m_PrefabAsset: {fileID: 0}
--- !u!114 &6595565027371713310
MonoBehaviour:
  m_ObjectHideFlags: 0
  m_CorrespondingSourceObject: {fileID: 0}
  m_PrefabInstance: {fileID: 0}
  m_PrefabAsset: {fileID: 0}
  m_GameObject: {fileID: 6595565027371713309}
  m_Enabled: 1
  m_EditorHideFlags: 0
  m_Script: {fileID: 11500000, guid: 2c5e010518c6c9143add2d8b87eddd09, type: 3}
  m_Name: 
  m_EditorClassIdentifier: 
--- !u!1001 &8625341481067167106
PrefabInstance:
  m_ObjectHideFlags: 0
  serializedVersion: 2
  m_Modification:
    m_TransformParent: {fileID: 1370128253}
    m_Modifications:
    - target: {fileID: 8625341481282917374, guid: 4babb5d2722d8e24cb89dc4b9d961c50,
        type: 3}
      propertyPath: m_Name
      value: Crosshair
      objectReference: {fileID: 0}
    - target: {fileID: 8625341481282917372, guid: 4babb5d2722d8e24cb89dc4b9d961c50,
        type: 3}
      propertyPath: m_LocalPosition.x
      value: 0
      objectReference: {fileID: 0}
    - target: {fileID: 8625341481282917372, guid: 4babb5d2722d8e24cb89dc4b9d961c50,
        type: 3}
      propertyPath: m_LocalPosition.y
      value: 0
      objectReference: {fileID: 0}
    - target: {fileID: 8625341481282917372, guid: 4babb5d2722d8e24cb89dc4b9d961c50,
        type: 3}
      propertyPath: m_LocalPosition.z
      value: 5
      objectReference: {fileID: 0}
    - target: {fileID: 8625341481282917372, guid: 4babb5d2722d8e24cb89dc4b9d961c50,
        type: 3}
      propertyPath: m_LocalRotation.x
      value: -0
      objectReference: {fileID: 0}
    - target: {fileID: 8625341481282917372, guid: 4babb5d2722d8e24cb89dc4b9d961c50,
        type: 3}
      propertyPath: m_LocalRotation.y
      value: -0
      objectReference: {fileID: 0}
    - target: {fileID: 8625341481282917372, guid: 4babb5d2722d8e24cb89dc4b9d961c50,
        type: 3}
      propertyPath: m_LocalRotation.z
      value: -0
      objectReference: {fileID: 0}
    - target: {fileID: 8625341481282917372, guid: 4babb5d2722d8e24cb89dc4b9d961c50,
        type: 3}
      propertyPath: m_LocalRotation.w
      value: 1
      objectReference: {fileID: 0}
    - target: {fileID: 8625341481282917372, guid: 4babb5d2722d8e24cb89dc4b9d961c50,
        type: 3}
      propertyPath: m_RootOrder
      value: 0
      objectReference: {fileID: 0}
    - target: {fileID: 8625341481282917372, guid: 4babb5d2722d8e24cb89dc4b9d961c50,
        type: 3}
      propertyPath: m_LocalEulerAnglesHint.x
      value: 0
      objectReference: {fileID: 0}
    - target: {fileID: 8625341481282917372, guid: 4babb5d2722d8e24cb89dc4b9d961c50,
        type: 3}
      propertyPath: m_LocalEulerAnglesHint.y
      value: 0
      objectReference: {fileID: 0}
    - target: {fileID: 8625341481282917372, guid: 4babb5d2722d8e24cb89dc4b9d961c50,
        type: 3}
      propertyPath: m_LocalEulerAnglesHint.z
      value: 0
      objectReference: {fileID: 0}
    - target: {fileID: 8625341481282917372, guid: 4babb5d2722d8e24cb89dc4b9d961c50,
        type: 3}
      propertyPath: m_LocalScale.x
      value: 0.05
      objectReference: {fileID: 0}
    - target: {fileID: 8625341481282917372, guid: 4babb5d2722d8e24cb89dc4b9d961c50,
        type: 3}
      propertyPath: m_LocalScale.y
      value: 0.05
      objectReference: {fileID: 0}
    - target: {fileID: 8625341481282917372, guid: 4babb5d2722d8e24cb89dc4b9d961c50,
        type: 3}
      propertyPath: m_LocalScale.z
      value: 0.05
      objectReference: {fileID: 0}
    m_RemovedComponents: []
  m_SourcePrefab: {fileID: 100100000, guid: 4babb5d2722d8e24cb89dc4b9d961c50, type: 3}
